{
  "profiles": {
    "WirelessThermometerServer": {
      "commandName": "Project",
      "environmentVariables": {
        "DOTNET_ENVIRONMENT": "Development"
      },
      "remoteDebugEnabled": false
    }
  }
}